poem,row_count,word_count
Kahdeksaskolmatta runo,147,6702
Kahdeksasneljättä runo,166,7434
Kolmaskymmenes runo,250,11279
Kahdestoista runo,252,11496
Neljäskolmatta runo,264,12059
Viideskymmenes runo,312,14072
Kolmastoista runo,135,6369
Kahdeksasviidettä runo,186,8475
Viidestoista runo,327,14837
Kuudesviidettä runo,322,14611
Kahdesviidettä runo,281,12720
Kahdeksastoista runo,353,16085
Kolmas runo,291,13267
Seitsemästoista runo,317,14299
Yhdeksästoista runo,260,11979
Kuudeskolmatta runo,394,17916
Seitsemäsneljättä runo,125,5624
Yhdeksäsviidettä runo,213,9730
Kuudestoista runo,206,9369
Yhdeksänkolmatta runo,301,13763
Yhdeskolmatta runo,219,9967
Yhdesneljättä runo,187,8521
Yhdestoista runo,202,9234
Kymmenes runo,256,11592
Kahdeskolmatta runo,262,11821
Yhdesviidettä runo,133,5986
Kahdesneljättä runo,274,12345
Seitsemäsviidettä runo,183,8247
Kuudesneljättä runo,180,8271
Neljäsneljättä runo,123,5623
Neljästoista runo,231,10520
Viideskolmatta runo,371,16942
Ensimmäinen runo,172,7685
Neljäskymmenes runo,173,7881
Kahdeksas runo,141,6410
Kolmaskolmatta runo,425,19175
Yhdeksäsneljättä runo,214,9685
Viides runo,121,5389
Toinen runo,191,8669
Kuudes runo,117,5354
Seitsemäs runo,184,8288
Kolmasneljättä runo,130,6064
Neljäs runo,264,11816
Viidesneljättä runo,177,8016
Neljäsviidettä runo,167,7543
Viidesviidettä runo,181,8091
Seitsemäskolmatta runo,213,9733
Kolmasviidettä runo,220,9943
Yhdeksäs runo,293,13418
Kahdeskymmenes runo,307,14059
